L RICH Mini Project 01 – STA 9750 Submission Material
…
# Cali
IPEDS <- IPEDS |>
    mutate(
        is_calpublic =
            str_detect(institution_name, "University of California") |
            str_detect(institution_name, "California State")
    )

# Check data
IPEDS |>
    filter(is_calpublic) |>
    distinct(institution_id, institution_name, state) |>
    arrange(institution_name)

# A tibble: 33 × 3
   institution_id institution_name                                 state
            <dbl> <chr>                                            <chr>
 1         110060 Bethesda University of California                CA   
 2         115755 California State Polytechnic University-Humboldt CA   
 3         110529 California State Polytechnic University-Pomona   CA   
 4         111188 California State University Maritime Academy     CA   
 5         110486 California State University-Bakersfield          CA   
 6         441937 California State University-Channel Islands      CA   
 7         110538 California State University-Chico                CA   
 8         110547 California State University-Dominguez Hills      CA   
 9         110574 California State University-East Bay             CA   
10         110556 California State University-Fresno               CA   
# ℹ 23 more rows
…
