Mini-Project 02 - How Do You Do ‘You Do You’? – STA 9750 Submission Material
…
# A tibble: 1 × 1
  avg_time_alone
           <dbl>
1           298.

Code

##Weighted average time alone (by year)

resp %>%
  group_by(survey_year) %>%
  summarize(avg_time_alone = weighted.mean(time_alone, survey_weight))

# A tibble: 22 × 2
   survey_year avg_time_alone
         <dbl>          <dbl>
 1        2003           285.
 2        2004           289.
 3        2005           280.
 4        2006           280.
 5        2007           283.
 6        2008           289.
 7        2009           293.
 8        2010           290.
 9        2011           289.
10        2012           288.
# ℹ 12 more rows
…
