Mini-Project 04 - Going for the Gold – STA 9750 Submission Material
…
Code

print(editions, n = 15)

# A tibble: 59 × 8
   season  year city           olympiad_roman olympiad_id edition_id edition_url
   <chr>  <int> <chr>          <chr>                <int>      <int> <chr>      
 1 Summer  1896 Athina         I                        1          1 /editions/1
 2 Summer  1900 Paris          II                       2          2 /editions/2
 3 Summer  1904 St. Louis      III                      3          3 /editions/3
 4 Summer  1908 London         IV                       4          5 /editions/5
 5 Summer  1912 Stockholm      V                        5          6 /editions/6
 6 Summer  1920 Antwerpen      VII                      7          7 /editions/7
 7 Summer  1924 Paris          VIII                     8          8 /editions/8
 8 Winter  1924 Chamonix       I                        1         29 /editions/…
 9 Summer  1928 Amsterdam      IX                       9          9 /editions/9
10 Winter  1928 Sankt Moritz   II                       2         30 /editions/…
11 Summer  1932 Los Angeles    X                       10         10 /editions/…
12 Winter  1932 Lake Placid    III                      3         31 /editions/…
13 Summer  1936 Berlin         XI                      11         11 /editions/…
14 Winter  1936 Garmisch-Part… IV                       4         32 /editions/…
15 Summer  1948 London         XIV                     14         12 /editions/…
# ℹ 44 more rows
# ℹ 1 more variable: host_country_code <chr>
…
